\relax 
\@writefile{toc}{\contentsline {section}{\numberline {1}プログラムの概要}{1}}
\@writefile{toc}{\contentsline {subsection}{\numberline {1.1}学習プログラム}{1}}
\@writefile{lof}{\contentsline {figure}{\numberline {1}{\ignorespaces CNNの構造}}{1}}
\newlabel{fig:fig1}{{1}{1}}
\@writefile{toc}{\contentsline {subsection}{\numberline {1.2}推論プログラム}{2}}
\@writefile{toc}{\contentsline {section}{\numberline {2}関数と関数マクロの説明}{2}}
\@writefile{toc}{\contentsline {subsection}{\numberline {2.1}パラメータ一括処理:for\_all()}{2}}
\newlabel{func:for_all}{{2.1}{2}}
\@writefile{toc}{\contentsline {subsection}{\numberline {2.2}行列の表示:print()}{2}}
\@writefile{toc}{\contentsline {subsection}{\numberline {2.3}配列のコピー:copy()}{3}}
\@writefile{toc}{\contentsline {subsection}{\numberline {2.4}全結合層:fc()}{3}}
\newlabel{fc}{{1}{3}}
\@writefile{toc}{\contentsline {subsection}{\numberline {2.5}全結合層逆伝播:fc\_bwd()}{3}}
\@writefile{toc}{\contentsline {subsection}{\numberline {2.6}活性化層:relu()}{3}}
\newlabel{relu}{{5}{3}}
\@writefile{toc}{\contentsline {subsection}{\numberline {2.7}活性化層逆伝播:relu\_bwd()}{4}}
\@writefile{toc}{\contentsline {subsection}{\numberline {2.8}プーリング層:pool()}{4}}
\newlabel{pool}{{7}{4}}
\@writefile{toc}{\contentsline {subsection}{\numberline {2.9}プーリング層逆伝播:pool\_bwd()}{4}}
\@writefile{toc}{\contentsline {subsection}{\numberline {2.10}畳み込み層:conv()}{4}}
\newlabel{func:conv}{{2.10}{4}}
\newlabel{conv}{{9}{5}}
\@writefile{toc}{\contentsline {subsection}{\numberline {2.11}畳み込み層逆伝播:conv\_bwd()}{5}}
\@writefile{toc}{\contentsline {subsection}{\numberline {2.12}ソフトマックス層:softmax()}{5}}
\newlabel{softmax}{{13}{5}}
\@writefile{toc}{\contentsline {subsection}{\numberline {2.13}ソフトマックス層逆伝播:softmax\_bwd()}{5}}
\@writefile{toc}{\contentsline {subsection}{\numberline {2.14}loss}{6}}
\@writefile{toc}{\contentsline {subsection}{\numberline {2.15}シャッフル:shuffle()}{6}}
\@writefile{toc}{\contentsline {subsection}{\numberline {2.16}配列の加算:add()}{6}}
\@writefile{toc}{\contentsline {subsection}{\numberline {2.17}パラメータの加算:add\_all()}{6}}
\@writefile{toc}{\contentsline {subsection}{\numberline {2.18}配列のスケール:scale()}{6}}
\@writefile{toc}{\contentsline {subsection}{\numberline {2.19}パラメータのスケール:scale\_all()}{6}}
\@writefile{toc}{\contentsline {subsection}{\numberline {2.20}配列の初期化:init()}{7}}
\@writefile{toc}{\contentsline {subsection}{\numberline {2.21}配列のリセット:init0()}{7}}
\@writefile{toc}{\contentsline {subsection}{\numberline {2.22}一様乱数の生成:Uniform()}{7}}
\@writefile{toc}{\contentsline {subsection}{\numberline {2.23}正規分布の生成:rand\_normal()}{7}}
\@writefile{toc}{\contentsline {subsection}{\numberline {2.24}正規分布を用いた配列の初期化:rand\_init\_normal()}{7}}
\@writefile{toc}{\contentsline {subsection}{\numberline {2.25}正規分布を用いたパラメータの初期化:rand\_init\_all()}{8}}
\@writefile{toc}{\contentsline {subsection}{\numberline {2.26}推測:inference()}{8}}
\@writefile{toc}{\contentsline {subsection}{\numberline {2.27}バックプロパゲーション:backward()}{8}}
\@writefile{toc}{\contentsline {subsection}{\numberline {2.28}テスト:test()}{8}}
\@writefile{toc}{\contentsline {subsection}{\numberline {2.29}学習データ保存:save()}{8}}
\@writefile{toc}{\contentsline {subsection}{\numberline {2.30}学習データ読み込み:load()}{9}}
\@writefile{toc}{\contentsline {subsection}{\numberline {2.31}スレッド処理関数:thread()}{9}}
\@writefile{toc}{\contentsline {section}{\numberline {3}拡張した点}{9}}
\@writefile{toc}{\contentsline {subsection}{\numberline {3.1}畳み込みネットワーク}{9}}
\@writefile{toc}{\contentsline {subsection}{\numberline {3.2}構造体の利用とマクロ関数の利用}{9}}
\newlabel{ext:struct}{{3.2}{9}}
\@writefile{toc}{\contentsline {subsection}{\numberline {3.3}標準分布を用いた初期値の設定}{9}}
\@writefile{lof}{\contentsline {figure}{\numberline {2}{\ignorespaces 構造体}}{10}}
\newlabel{fig:fig2}{{2}{10}}
\@writefile{toc}{\contentsline {subsection}{\numberline {3.4}Early stopping}{10}}
\@writefile{toc}{\contentsline {subsection}{\numberline {3.5}マルチスレッド処理}{10}}
\newlabel{ext:thread}{{3.5}{10}}
\@writefile{toc}{\contentsline {subsection}{\numberline {3.6}アプリケーションへの組み込み}{10}}
\@writefile{lof}{\contentsline {figure}{\numberline {3}{\ignorespaces Webアプリケーション}}{11}}
\newlabel{fig:web}{{3}{11}}
\@writefile{toc}{\contentsline {section}{\numberline {4}結果}{11}}
\bibcite{}{1}
\@writefile{lof}{\contentsline {figure}{\numberline {4}{\ignorespaces Webアプリケーションの誤答例}}{12}}
\newlabel{fig:weberr}{{4}{12}}
\@writefile{toc}{\contentsline {section}{\numberline {5}考察と感想}{12}}
\bibcite{}{2}
\bibcite{}{3}
\bibcite{}{4}
\bibcite{}{5}
